data/demo.vcd
$date
	Sat Aug 14 14:38:39 2021
$end
$version
	Icarus Verilog
$end
$timescale
	10ps
$end
$scope module tb $end
$var wire 1 ! s_axis_data_tready $end
$var wire 1 " s_axis_config_tready $end
$var wire 1 # m_axis_data_tvalid $end
$var wire 16 $ m_axis_data_tdata [15:0] $end
$var reg 1 % aclk $end
$var reg 1 & aclken $end
$var reg 1 ' aresetn $end
$var reg 1 ( m_axis_data_tready $end
$var reg 1 ) ptest_icg_bypass $end
$var reg 14 * s_axis_config_tdata [13:0] $end
$var reg 1 + s_axis_config_tvalid $end
$var reg 16 , s_axis_data_tdata [15:0] $end
$var reg 1 - s_axis_data_tvalid $end
$var integer 32 . fw [31:0] $end
$scope module dut $end
$var wire 1 % aclk $end
$var wire 1 & aclken $end
$var wire 1 ' aresetn $end
$var wire 1 ( m_axis_data_tready $end
$var wire 1 # m_axis_data_tvalid $end
$var wire 1 ) ptest_icg_bypass $end
$var wire 14 / s_axis_config_tdata [13:0] $end
$var wire 1 + s_axis_config_tvalid $end
$var wire 16 0 s_axis_data_tdata [15:0] $end
$var wire 1 ! s_axis_data_tready $end
$var wire 1 - s_axis_data_tvalid $end
$var wire 1 1 underflow_flag $end
$var wire 1 2 overflow_flag $end
$var wire 16 3 m_axis_data_tdata [15:0] $end
$var wire 86 4 full_data_out [85:0] $end
$var wire 86 5 full_data_in [85:0] $end
$var wire 1 6 data_out_vld $end
$var wire 1 7 aclk_gating $end
$var reg 14 8 rate [13:0] $end
$var reg 1 " s_axis_config_tready $end
$scope module u_cgm_aclk $end
$var wire 1 & cgm_en $end
$var wire 1 % clk_in $end
$var wire 1 7 gclk_out $end
$var wire 1 ) ptest_icg_bypass $end
$var wire 1 9 gclk_in $end
$var reg 1 : cgm_en_latched $end
$scope begin simulation_chk $end
$upscope $end
$upscope $end
$scope module u_cic_top $end
$var wire 1 7 clk $end
$var wire 86 ; data_comb0 [85:0] $end
$var wire 1 < data_comb_vld0 $end
$var wire 86 = data_decimator_in [85:0] $end
$var wire 1 > data_decimator_in_vld $end
$var wire 86 ? data_in [85:0] $end
$var wire 1 - data_in_vld $end
$var wire 86 @ data_integrator0 [85:0] $end
$var wire 1 A data_integrator_vld0 $end
$var wire 86 B data_out [85:0] $end
$var wire 1 ( data_out_rdy $end
$var wire 1 6 data_out_vld $end
$var wire 14 C rate [13:0] $end
$var wire 1 ' rst_n $end
$var wire 1 D data_integrator_vld5 $end
$var wire 1 E data_integrator_vld4 $end
$var wire 1 F data_integrator_vld3 $end
$var wire 1 G data_integrator_vld2 $end
$var wire 1 H data_integrator_vld1 $end
$var wire 86 I data_integrator5 [85:0] $end
$var wire 86 J data_integrator4 [85:0] $end
$var wire 86 K data_integrator3 [85:0] $end
$var wire 86 L data_integrator2 [85:0] $end
$var wire 86 M data_integrator1 [85:0] $end
$var wire 1 N data_decimator_out_vld $end
$var wire 86 O data_decimator_out [85:0] $end
$var wire 1 P data_comb_vld5 $end
$var wire 1 Q data_comb_vld4 $end
$var wire 1 R data_comb_vld3 $end
$var wire 1 S data_comb_vld2 $end
$var wire 1 T data_comb_vld1 $end
$var wire 86 U data_comb5 [85:0] $end
$var wire 86 V data_comb4 [85:0] $end
$var wire 86 W data_comb3 [85:0] $end
$var wire 86 X data_comb2 [85:0] $end
$var wire 86 Y data_comb1 [85:0] $end
$scope module u_comb_0 $end
$var wire 1 7 clk $end
$var wire 86 Z data_in [85:0] $end
$var wire 1 < data_in_vld $end
$var wire 1 ( data_out_rdy $end
$var wire 1 [ data_valid $end
$var wire 1 ' rst_n $end
$var wire 86 \ next_data_out [85:0] $end
$var reg 86 ] data_out [85:0] $end
$var reg 1 T data_out_vld $end
$var reg 86 ^ prev_data_in [85:0] $end
$upscope $end
$scope module u_comb_1 $end
$var wire 1 7 clk $end
$var wire 86 _ data_in [85:0] $end
$var wire 1 T data_in_vld $end
$var wire 1 ( data_out_rdy $end
$var wire 1 ` data_valid $end
$var wire 1 ' rst_n $end
$var wire 86 a next_data_out [85:0] $end
$var reg 86 b data_out [85:0] $end
$var reg 1 S data_out_vld $end
$var reg 86 c prev_data_in [85:0] $end
$upscope $end
$scope module u_comb_2 $end
$var wire 1 7 clk $end
$var wire 86 d data_in [85:0] $end
$var wire 1 S data_in_vld $end
$var wire 1 ( data_out_rdy $end
$var wire 1 e data_valid $end
$var wire 1 ' rst_n $end
$var wire 86 f next_data_out [85:0] $end
$var reg 86 g data_out [85:0] $end
$var reg 1 R data_out_vld $end
$var reg 86 h prev_data_in [85:0] $end
$upscope $end
$scope module u_comb_3 $end
$var wire 1 7 clk $end
$var wire 86 i data_in [85:0] $end
$var wire 1 R data_in_vld $end
$var wire 1 ( data_out_rdy $end
$var wire 1 j data_valid $end
$var wire 1 ' rst_n $end
$var wire 86 k next_data_out [85:0] $end
$var reg 86 l data_out [85:0] $end
$var reg 1 Q data_out_vld $end
$var reg 86 m prev_data_in [85:0] $end
$upscope $end
$scope module u_comb_4 $end
$var wire 1 7 clk $end
$var wire 86 n data_in [85:0] $end
$var wire 1 Q data_in_vld $end
$var wire 1 ( data_out_rdy $end
$var wire 1 o data_valid $end
$var wire 1 ' rst_n $end
$var wire 86 p next_data_out [85:0] $end
$var reg 86 q data_out [85:0] $end
$var reg 1 P data_out_vld $end
$var reg 86 r prev_data_in [85:0] $end
$upscope $end
$scope module u_decimator $end
$var wire 1 7 clk $end
$var wire 1 s cnt_inc $end
$var wire 86 t data_in [85:0] $end
$var wire 1 > data_in_vld $end
$var wire 1 ( data_out_rdy $end
$var wire 1 u data_valid $end
$var wire 14 v rate [13:0] $end
$var wire 1 ' rst_n $end
$var wire 1 N data_out_vld $end
$var wire 86 w data_out [85:0] $end
$var wire 1 x cnt_clr $end
$var reg 14 y cnt [13:0] $end
$var reg 86 z data_prev [85:0] $end
$upscope $end
$scope module u_intergrator_0 $end
$var wire 1 7 clk $end
$var wire 86 { data_in [85:0] $end
$var wire 1 A data_in_vld $end
$var wire 1 ( data_out_rdy $end
$var wire 1 ' rst_n $end
$var wire 86 | next_data_out [85:0] $end
$var reg 86 } data_out [85:0] $end
$var reg 1 H data_out_vld $end
$upscope $end
$scope module u_intergrator_1 $end
$var wire 1 7 clk $end
$var wire 86 ~ data_in [85:0] $end
$var wire 1 H data_in_vld $end
$var wire 1 ( data_out_rdy $end
$var wire 1 ' rst_n $end
$var wire 86 !! next_data_out [85:0] $end
$var reg 86 "! data_out [85:0] $end
$var reg 1 G data_out_vld $end
$upscope $end
$scope module u_intergrator_2 $end
$var wire 1 7 clk $end
$var wire 86 #! data_in [85:0] $end
$var wire 1 G data_in_vld $end
$var wire 1 ( data_out_rdy $end
$var wire 1 ' rst_n $end
$var wire 86 $! next_data_out [85:0] $end
$var reg 86 %! data_out [85:0] $end
$var reg 1 F data_out_vld $end
$upscope $end
$scope module u_intergrator_3 $end
$var wire 1 7 clk $end
$var wire 86 &! data_in [85:0] $end
$var wire 1 F data_in_vld $end
$var wire 1 ( data_out_rdy $end
$var wire 1 ' rst_n $end
$var wire 86 '! next_data_out [85:0] $end
$var reg 86 (! data_out [85:0] $end
$var reg 1 E data_out_vld $end
$upscope $end
$scope module u_intergrator_4 $end
$var wire 1 7 clk $end
$var wire 86 )! data_in [85:0] $end
$var wire 1 E data_in_vld $end
$var wire 1 ( data_out_rdy $end
$var wire 1 ' rst_n $end
$var wire 86 *! next_data_out [85:0] $end
$var reg 86 +! data_out [85:0] $end
$var reg 1 D data_out_vld $end
$upscope $end
$upscope $end
$upscope $end
$scope task delay $end
$upscope $end
$scope task tx_data $end
$var reg 16 ,! data [15:0] $end
$upscope $end
$scope task tx_data_seqs $end
$var reg 16 -! data_in [15:0] $end
$var integer 32 .! flag [31:0] $end
$var integer 32 /! fr [31:0] $end
$upscope $end
$scope task tx_rate $end
$var reg 16 0! rate [15:0] $end
$upscope $end
$upscope $end
$enddefinitions $end
$dumpvars
0!
bxxxxxxxxxxxxxxxx 0!
x"
bxxxxxxxxxxxxxxxx $
0(
b0000000000000000 0
b00000000000000000000000000000000000000000000000000000000000000000000000000000000000000 @
0`
bxxxxxxxxxxxxxxxxxxxxxxxxxxxxxxxxxxxxxxxxxxxxxxxxxxxxxxxxxxxxxxxxxxxxxxxxxxxxxxxxxxxxxx a
0A
bxxxxxxxxxxxxxxxxxxxxxxxxxxxxxxxxxxxxxxxxxxxxxxxxxxxxxxxxxxxxxxxxxxxxxxxxxxxxxxxxxxxxxx b
bxxxxxxxxxxxxxxxxxxxxxxxxxxxxxxxxxxxxxxxxxxxxxxxxxxxxxxxxxxxxxxxxxxxxxxxxxxxxxxxxxxxxxx c
x1
bxxxxxxxxxxxxxxxxxxxxxxxxxxxxxxxxxxxxxxxxxxxxxxxxxxxxxxxxxxxxxxxxxxxxxxxxxxxxxxxxxxxxxx B
bxxxxxxxxxxxxxxxxxxxxxxxxxxxxxxxxxxxxxxxxxxxxxxxxxxxxxxxxxxxxxxxxxxxxxxxxxxxxxxxxxxxxxx d
0e
bxxxxxxxxxxxxxx C
bxxxxxxxxxxxxxxxxxxxxxxxxxxxxxxxxxxxxxxxxxxxxxxxxxxxxxxxxxxxxxxxxxxxxxxxxxxxxxxxxxxxxxx f
bxxxxxxxxxxxxxxxxxxxxxxxxxxxxxxxxxxxxxxxxxxxxxxxxxxxxxxxxxxxxxxxxxxxxxxxxxxxxxxxxxxxxxx g
0)
x2
xD
bxxxxxxxxxxxxxxxxxxxxxxxxxxxxxxxxxxxxxxxxxxxxxxxxxxxxxxxxxxxxxxxxxxxxxxxxxxxxxxxxxxxxxx h
bxxxxxxxxxxxxxxxxxxxxxxxxxxxxxxxxxxxxxxxxxxxxxxxxxxxxxxxxxxxxxxxxxxxxxxxxxxxxxxxxxxxxxx i
xE
0j
bxxxxxxxxxxxxxxxxxxxxxxxxxxxxxxxxxxxxxxxxxxxxxxxxxxxxxxxxxxxxxxxxxxxxxxxxxxxxxxxxxxxxxx k
bxxxxxxxxxxxxxxxx 3
xF
bxxxxxxxxxxxxxxxxxxxxxxxxxxxxxxxxxxxxxxxxxxxxxxxxxxxxxxxxxxxxxxxxxxxxxxxxxxxxxxxxxxxxxx l
bxxxxxxxxxxxxxxxxxxxxxxxxxxxxxxxxxxxxxxxxxxxxxxxxxxxxxxxxxxxxxxxxxxxxxxxxxxxxxxxxxxxxxx m
xG
bxxxxxxxxxxxxxxxxxxxxxxxxxxxxxxxxxxxxxxxxxxxxxxxxxxxxxxxxxxxxxxxxxxxxxxxxxxxxxxxxxxxxxx n
0o
1%
b00000000000000 *
bxxxxxxxxxxxxxxxxxxxxxxxxxxxxxxxxxxxxxxxxxxxxxxxxxxxxxxxxxxxxxxxxxxxxxxxxxxxxxxxxxxxxxx 4
xH
bxxxxxxxxxxxxxxxxxxxxxxxxxxxxxxxxxxxxxxxxxxxxxxxxxxxxxxxxxxxxxxxxxxxxxxxxxxxxxxxxxxxxxx p
bxxxxxxxxxxxxxxxxxxxxxxxxxxxxxxxxxxxxxxxxxxxxxxxxxxxxxxxxxxxxxxxxxxxxxxxxxxxxxxxxxxxxxx q
bxxxxxxxxxxxxxxxxxxxxxxxxxxxxxxxxxxxxxxxxxxxxxxxxxxxxxxxxxxxxxxxxxxxxxxxxxxxxxxxxxxxxxx I
bxxxxxxxxxxxxxxxxxxxxxxxxxxxxxxxxxxxxxxxxxxxxxxxxxxxxxxxxxxxxxxxxxxxxxxxxxxxxxxxxxxxxxx r
0s
b00000000000000000000000000000000000000000000000000000000000000000000000000000000000000 5
bxxxxxxxxxxxxxxxxxxxxxxxxxxxxxxxxxxxxxxxxxxxxxxxxxxxxxxxxxxxxxxxxxxxxxxxxxxxxxxxxxxxxxx J
bxxxxxxxxxxxxxxxxxxxxxxxxxxxxxxxxxxxxxxxxxxxxxxxxxxxxxxxxxxxxxxxxxxxxxxxxxxxxxxxxxxxxxx t
0u
bxxxxxxxxxxxxxxxxxxxxxxxxxxxxxxxxxxxxxxxxxxxxxxxxxxxxxxxxxxxxxxxxxxxxxxxxxxxxxxxxxxxxxx K
bxxxxxxxxxxxxxx v
bxxxxxxxxxxxxxxxxxxxxxxxxxxxxxxxxxxxxxxxxxxxxxxxxxxxxxxxxxxxxxxxxxxxxxxxxxxxxxxxxxxxxxx w
0+
x6
bxxxxxxxxxxxxxxxxxxxxxxxxxxxxxxxxxxxxxxxxxxxxxxxxxxxxxxxxxxxxxxxxxxxxxxxxxxxxxxxxxxxxxx L
0x
bxxxxxxxxxxxxxx y
bxxxxxxxxxxxxxxxxxxxxxxxxxxxxxxxxxxxxxxxxxxxxxxxxxxxxxxxxxxxxxxxxxxxxxxxxxxxxxxxxxxxxxx M
bxxxxxxxxxxxxxxxxxxxxxxxxxxxxxxxxxxxxxxxxxxxxxxxxxxxxxxxxxxxxxxxxxxxxxxxxxxxxxxxxxxxxxx z
b00000000000000000000000000000000000000000000000000000000000000000000000000000000000000 {
x7
0N
bxxxxxxxxxxxxxxxxxxxxxxxxxxxxxxxxxxxxxxxxxxxxxxxxxxxxxxxxxxxxxxxxxxxxxxxxxxxxxxxxxxxxxx |
bxxxxxxxxxxxxxxxxxxxxxxxxxxxxxxxxxxxxxxxxxxxxxxxxxxxxxxxxxxxxxxxxxxxxxxxxxxxxxxxxxxxxxx }
bxxxxxxxxxxxxxxxxxxxxxxxxxxxxxxxxxxxxxxxxxxxxxxxxxxxxxxxxxxxxxxxxxxxxxxxxxxxxxxxxxxxxxx O
bxxxxxxxxxxxxxxxxxxxxxxxxxxxxxxxxxxxxxxxxxxxxxxxxxxxxxxxxxxxxxxxxxxxxxxxxxxxxxxxxxxxxxx ~
bxxxxxxxxxxxxxxxxxxxxxxxxxxxxxxxxxxxxxxxxxxxxxxxxxxxxxxxxxxxxxxxxxxxxxxxxxxxxxxxxxxxxxx !!
0#
0&
b0000000000000000 ,
bxxxxxxxxxxxxxx 8
xP
bxxxxxxxxxxxxxxxxxxxxxxxxxxxxxxxxxxxxxxxxxxxxxxxxxxxxxxxxxxxxxxxxxxxxxxxxxxxxxxxxxxxxxx "!
bxxxxxxxxxxxxxxxxxxxxxxxxxxxxxxxxxxxxxxxxxxxxxxxxxxxxxxxxxxxxxxxxxxxxxxxxxxxxxxxxxxxxxx #!
xQ
bxxxxxxxxxxxxxxxxxxxxxxxxxxxxxxxxxxxxxxxxxxxxxxxxxxxxxxxxxxxxxxxxxxxxxxxxxxxxxxxxxxxxxx $!
bxxxxxxxxxxxxxxxxxxxxxxxxxxxxxxxxxxxxxxxxxxxxxxxxxxxxxxxxxxxxxxxxxxxxxxxxxxxxxxxxxxxxxx %!
x9
xR
bxxxxxxxxxxxxxxxxxxxxxxxxxxxxxxxxxxxxxxxxxxxxxxxxxxxxxxxxxxxxxxxxxxxxxxxxxxxxxxxxxxxxxx &!
bxxxxxxxxxxxxxxxxxxxxxxxxxxxxxxxxxxxxxxxxxxxxxxxxxxxxxxxxxxxxxxxxxxxxxxxxxxxxxxxxxxxxxx '!
xS
bxxxxxxxxxxxxxxxxxxxxxxxxxxxxxxxxxxxxxxxxxxxxxxxxxxxxxxxxxxxxxxxxxxxxxxxxxxxxxxxxxxxxxx (!
bxxxxxxxxxxxxxxxxxxxxxxxxxxxxxxxxxxxxxxxxxxxxxxxxxxxxxxxxxxxxxxxxxxxxxxxxxxxxxxxxxxxxxx )!
0-
x:
xT
bxxxxxxxxxxxxxxxxxxxxxxxxxxxxxxxxxxxxxxxxxxxxxxxxxxxxxxxxxxxxxxxxxxxxxxxxxxxxxxxxxxxxxx *!
bxxxxxxxxxxxxxxxxxxxxxxxxxxxxxxxxxxxxxxxxxxxxxxxxxxxxxxxxxxxxxxxxxxxxxxxxxxxxxxxxxxxxxx +!
bxxxxxxxxxxxxxxxxxxxxxxxxxxxxxxxxxxxxxxxxxxxxxxxxxxxxxxxxxxxxxxxxxxxxxxxxxxxxxxxxxxxxxx U
bxxxxxxxxxxxxxxxx ,!
bxxxxxxxxxxxxxxxx -!
bxxxxxxxxxxxxxxxxxxxxxxxxxxxxxxxxxxxxxxxxxxxxxxxxxxxxxxxxxxxxxxxxxxxxxxxxxxxxxxxxxxxxxx ;
bxxxxxxxxxxxxxxxxxxxxxxxxxxxxxxxxxxxxxxxxxxxxxxxxxxxxxxxxxxxxxxxxxxxxxxxxxxxxxxxxxxxxxx V
bxxxxxxxxxxxxxxxxxxxxxxxxxxxxxxxx .!
bxxxxxxxxxxxxxxxxxxxxxxxxxxxxxxxx /!
bxxxxxxxxxxxxxxxxxxxxxxxxxxxxxxxxxxxxxxxxxxxxxxxxxxxxxxxxxxxxxxxxxxxxxxxxxxxxxxxxxxxxxx W
0'
b10000000000000000000000000000011 .
0<
bxxxxxxxxxxxxxxxxxxxxxxxxxxxxxxxxxxxxxxxxxxxxxxxxxxxxxxxxxxxxxxxxxxxxxxxxxxxxxxxxxxxxxx X
bxxxxxxxxxxxxxxxxxxxxxxxxxxxxxxxxxxxxxxxxxxxxxxxxxxxxxxxxxxxxxxxxxxxxxxxxxxxxxxxxxxxxxx Y
bxxxxxxxxxxxxxxxxxxxxxxxxxxxxxxxxxxxxxxxxxxxxxxxxxxxxxxxxxxxxxxxxxxxxxxxxxxxxxxxxxxxxxx =
bxxxxxxxxxxxxxxxxxxxxxxxxxxxxxxxxxxxxxxxxxxxxxxxxxxxxxxxxxxxxxxxxxxxxxxxxxxxxxxxxxxxxxx Z
0[
b00000000000000 /
0>
bxxxxxxxxxxxxxxxxxxxxxxxxxxxxxxxxxxxxxxxxxxxxxxxxxxxxxxxxxxxxxxxxxxxxxxxxxxxxxxxxxxxxxx \
bxxxxxxxxxxxxxxxxxxxxxxxxxxxxxxxxxxxxxxxxxxxxxxxxxxxxxxxxxxxxxxxxxxxxxxxxxxxxxxxxxxxxxx ]
b00000000000000000000000000000000000000000000000000000000000000000000000000000000000000 ?
bxxxxxxxxxxxxxxxxxxxxxxxxxxxxxxxxxxxxxxxxxxxxxxxxxxxxxxxxxxxxxxxxxxxxxxxxxxxxxxxxxxxxxx ^
bxxxxxxxxxxxxxxxxxxxxxxxxxxxxxxxxxxxxxxxxxxxxxxxxxxxxxxxxxxxxxxxxxxxxxxxxxxxxxxxxxxxxxx _
$end
#6200
0%
07
09
#6210
0:
#12400
1!
1(
x`
xe
xj
xo
xx
1%
#12410
x#
1&
#18600
0%
#18610
1:
#24800
17
19
1%
#24810
0j
b00000000000000000000000000000000000000000000000000000000000000000000000000000000000000 ;
b00000000000000000000000000000000000000000000000000000000000000000000000000000000000000 m
1"
b00000000000000000000000000000000000000000000000000000000000000000000000000000000000000 d
b0000000000000000 $
b00000000000000000000000000000000000000000000000000000000000000000000000000000000000000 _
b00000000000000000000000000000000000000000000000000000000000000000000000000000000000000 B
b00000000000000000000000000000000000000000000000000000000000000000000000000000000000000 a
01
b00000000000000000000000000000000000000000000000000000000000000000000000000000000000000 b
b00000000000000000000000000000000000000000000000000000000000000000000000000000000000000 %!
b00000000000000000000000000000000000000000000000000000000000000000000000000000000000000 c
0S
b00000000000000000000000000000000000000000000000000000000000000000000000000000000000000 l
0D
b00000000000000000000000000000000000000000000000000000000000000000000000000000000000000 f
b00000000000000 C
02
b00000000000000000000000000000000000000000000000000000000000000000000000000000000000000 g
0T
0E
b00000000000000000000000000000000000000000000000000000000000000000000000000000000000000 h
b00000000000000000000000000000000000000000000000000000000000000000000000000000000000000 i
0F
b0000000000000000 3
b00000000000000000000000000000000000000000000000000000000000000000000000000000000000000 k
0e
b00000000000000000000000000000000000000000000000000000000000000000000000000000000000000 ^
b00000000000000000000000000000000000000000000000000000000000000000000000000000000000000 }
b00000000000000000000000000000000000000000000000000000000000000000000000000000000000000 t
0G
b00000000000000000000000000000000000000000000000000000000000000000000000000000000000000 n
0H
b00000000000000000000000000000000000000000000000000000000000000000000000000000000000000 4
b00000000000000000000000000000000000000000000000000000000000000000000000000000000000000 J
b00000000000000000000000000000000000000000000000000000000000000000000000000000000000000 I
b00000000000000000000000000000000000000000000000000000000000000000000000000000000000000 p
b00000000000000000000000000000000000000000000000000000000000000000000000000000000000000 q
b00000000000000000000000000000000000000000000000000000000000000000000000000000000000000 r
0`
b00000000000000000000000000000000000000000000000000000000000000000000000000000000000000 L
b00000000000000 v
b00000000000000000000000000000000000000000000000000000000000000000000000000000000000000 K
06
b00000000000000000000000000000000000000000000000000000000000000000000000000000000000000 w
b00000000000000000000000000000000000000000000000000000000000000000000000000000000000000 O
b00000000000000000000000000000000000000000000000000000000000000000000000000000000000000 |
b00000000000000000000000000000000000000000000000000000000000000000000000000000000000000 M
b00000000000000 y
b00000000000000000000000000000000000000000000000000000000000000000000000000000000000000 z
0o
b00000000000000000000000000000000000000000000000000000000000000000000000000000000000000 (!
0P
b00000000000000000000000000000000000000000000000000000000000000000000000000000000000000 ~
b00000000000000000000000000000000000000000000000000000000000000000000000000000000000000 !!
b00000000000000000000000000000000000000000000000000000000000000000000000000000000000000 V
b00000000000000 8
b00000000000000000000000000000000000000000000000000000000000000000000000000000000000000 &!
0Q
b00000000000000000000000000000000000000000000000000000000000000000000000000000000000000 "!
b00000000000000000000000000000000000000000000000000000000000000000000000000000000000000 #!
0R
b00000000000000000000000000000000000000000000000000000000000000000000000000000000000000 $!
0#
b00000000000000000000000000000000000000000000000000000000000000000000000000000000000000 '!
1x
b00000000000000000000000000000000000000000000000000000000000000000000000000000000000000 +!
b00000000000000000000000000000000000000000000000000000000000000000000000000000000000000 U
b00000000000000000000000000000000000000000000000000000000000000000000000000000000000000 ]
b00000000000000000000000000000000000000000000000000000000000000000000000000000000000000 X
b00000000000000000000000000000000000000000000000000000000000000000000000000000000000000 W
b00000000000000000000000000000000000000000000000000000000000000000000000000000000000000 *!
1'
b00000000000000000000000000000000000000000000000000000000000000000000000000000000000000 )!
b00000000000000000000000000000000000000000000000000000000000000000000000000000000000000 \
b00000000000000000000000000000000000000000000000000000000000000000000000000000000000000 Z
b00000000000000000000000000000000000000000000000000000000000000000000000000000000000000 Y
b00000000000000000000000000000000000000000000000000000000000000000000000000000000000000 =
#31000
0%
09
07
#37200
1%
19
17
#37210
b0000000000000001 0!
b00000000000001 *
1+
b00000000000001 /
#43400
0%
09
07
#49600
1%
19
17
#49610
b00000000000000000000000000000000000000000000000000000000000000000000000000000001100100 @
b00000000000000000000000000000000000000000000000000000000000000000000000000000001100100 ?
b0000000001100100 0
1A
0"
b00000000000001 C
b00000000000001 8
b00000000000000000000000000000000000000000000000000000000000000000000000000000001100100 |
b00000000000000000000000000000000000000000000000000000000000000000000000000000001100100 5
1s
0x
1u
b00000000000001 v
1N
b00000000000000000000000000000000000000000000000000000000000000000000000000000001100100 {
b0000000001100100 ,
0+
b0000000001100100 ,!
1-
1<
1[
1>
#55800
0%
09
07
#62000
1%
19
17
#62010
b00000000000000000000000000000000000000000000000000000000000000000000000000000011001000 @
b00000000000000000000000000000000000000000000000000000000000000000000000000000001100100 ~
b00000000000000000000000000000000000000000000000000000000000000000000000000000001100100 M
b00000000000001 y
b00000000000000000000000000000000000000000000000000000000000000000000000000000011001000 ?
1T
1x
1"
1H
b00000000000000000000000000000000000000000000000000000000000000000000000000000011001000 5
1`
b0000000011001000 0
b00000000000000000000000000000000000000000000000000000000000000000000000000000001100100 }
b0000000011001000 ,!
0[
0<
b00000000000000000000000000000000000000000000000000000000000000000000000000000100101100 |
b00000000000000000000000000000000000000000000000000000000000000000000000000000011001000 {
b00000000000000000000000000000000000000000000000000000000000000000000000000000001100100 !!
0N
b0000000011001000 ,
#68200
07
0%
09
#74400
17
1%
19
#74410
b0000000100101100 ,
1N
b00000000000000000000000000000000000000000000000000000000000000000000000000000100101100 M
0`
b00000000000000000000000000000000000000000000000000000000000000000000000000000100101100 ~
1S
b00000000000000000000000000000000000000000000000000000000000000000000000000000100101100 @
0T
b00000000000000000000000000000000000000000000000000000000000000000000000000000100101100 ?
1e
b00000000000000 y
1G
b00000000000000000000000000000000000000000000000000000000000000000000000000000001100100 L
0x
b00000000000000000000000000000000000000000000000000000000000000000000000000000100101100 5
b00000000000000000000000000000000000000000000000000000000000000000000000000000110010000 !!
b00000000000000000000000000000000000000000000000000000000000000000000000000001001011000 |
1[
b00000000000000000000000000000000000000000000000000000000000000000000000000000100101100 }
b0000000100101100 0
b0000000100101100 ,!
1<
b00000000000000000000000000000000000000000000000000000000000000000000000000000001100100 #!
b00000000000000000000000000000000000000000000000000000000000000000000000000000001100100 $!
b00000000000000000000000000000000000000000000000000000000000000000000000000000100101100 {
b00000000000000000000000000000000000000000000000000000000000000000000000000000001100100 "!
#80600
09
07
0%
#86800
19
17
1%
#86810
b00000000000000000000000000000000000000000000000000000000000000000000000000000110010000 "!
b00000000000000000000000000000000000000000000000000000000000000000000000000000110010000 {
1`
1j
b00000000000000000000000000000000000000000000000000000000000000000000000000000110010000 L
b00000000000000000000000000000000000000000000000000000000000000000000000000001001011000 M
b0000000110010000 ,
b00000000000000000000000000000000000000000000000000000000000000000000000000000001100100 %!
0N
b00000000000001 y
b00000000000000000000000000000000000000000000000000000000000000000000000000001001011000 ~
1F
b00000000000000000000000000000000000000000000000000000000000000000000000000000110010000 @
0S
0e
b00000000000000000000000000000000000000000000000000000000000000000000000000000110010000 ?
b00000000000000000000000000000000000000000000000000000000000000000000000000000001100100 K
1T
b00000000000000000000000000000000000000000000000000000000000000000000000000000111110100 $!
b0000000110010000 ,!
b00000000000000000000000000000000000000000000000000000000000000000000000000001111101000 |
b00000000000000000000000000000000000000000000000000000000000000000000000000000110010000 5
1x
b00000000000000000000000000000000000000000000000000000000000000000000000000001111101000 !!
b0000000110010000 0
0[
b00000000000000000000000000000000000000000000000000000000000000000000000000000001100100 &!
b00000000000000000000000000000000000000000000000000000000000000000000000000001001011000 }
1R
b00000000000000000000000000000000000000000000000000000000000000000000000000000001100100 '!
b00000000000000000000000000000000000000000000000000000000000000000000000000000110010000 #!
0<
#93000
07
09
0%
#99200
17
19
1%
#99210
1<
b00000000000000000000000000000000000000000000000000000000000000000000000000001111101000 #!
b00000000000000000000000000000000000000000000000000000000000000000000000000001111101000 M
b00000000000000000000000000000000000000000000000000000000000000000000000000001111101000 "!
b00000000000000000000000000000000000000000000000000000000000000000000000000000111110100 ?
b00000000000000000000000000000000000000000000000000000000000000000000000000000001100100 (!
b00000000000000000000000000000000000000000000000000000000000000000000000000001111101000 L
0`
b00000000000000000000000000000000000000000000000000000000000000000000000000000111110100 {
0j
1E
1S
b00000000000000 y
b0000000111110100 ,
b00000000000000000000000000000000000000000000000000000000000000000000000000000001100100 J
1N
b00000000000000000000000000000000000000000000000000000000000000000000000000000111110100 %!
b00000000000000000000000000000000000000000000000000000000000000000000000000001111101000 ~
b00000000000000000000000000000000000000000000000000000000000000000000000000000111110100 @
1e
b00000000000000000000000000000000000000000000000000000000000000000000000000001001011000 '!
b00000000000000000000000000000000000000000000000000000000000000000000000000000111110100 &!
b0000000111110100 ,!
0T
b00000000000000000000000000000000000000000000000000000000000000000000000000000111110100 K
b00000000000000000000000000000000000000000000000000000000000000000000000000010111011100 $!
1o
1[
b00000000000000000000000000000000000000000000000000000000000000000000000000000111110100 5
b00000000000000000000000000000000000000000000000000000000000000000000000000010111011100 |
b0000000111110100 0
0x
b00000000000000000000000000000000000000000000000000000000000000000000000000011111010000 !!
0R
b00000000000000000000000000000000000000000000000000000000000000000000000000001111101000 }
1Q
b00000000000000000000000000000000000000000000000000000000000000000000000000000001100100 *!
b00000000000000000000000000000000000000000000000000000000000000000000000000000001100100 )!
#105400
09
07
0%
#111600
19
17
1%
#111610
b00000000000000000000000000000000000000000000000000000000000000000000000000001001011000 )!
b00000000000000000000000000000000000000000000000000000000000000000000000000001010111100 *!
1`
b00000000000000000000000000000000000000000000000000000000000000000000000000011111010000 #!
b00000000000000000000000000000000000000000000000000000000000000000000000000010111011100 ~
0<
b00000000000000000000000000000000000000000000000000000000000000000000000000011111010000 L
b00000000000000000000000000000000000000000000000000000000000000000000000000011111010000 "!
b00000000000000000000000000000000000000000000000000000000000000000000000000010111011100 M
b00000000000000000000000000000000000000000000000000000000000000000000000000001001011000 (!
b00000000000000000000000000000000000000000000000000000000000000000000000000001001011000 ?
1D
0N
b00000000000001 y
1j
b00000000000000000000000000000000000000000000000000000000000000000000000000001001011000 {
0S
b00000000000000000000000000000000000000000000000000000000000000000000000000000001100100 t
b00000000000000000000000000000000000000000000000000000000000000000000000000001001011000 J
b00000000000000000000000000000000000000000000000000000000000000000000000000000001100100 I
b0000001001011000 ,
16
b00000000000000000000000000000000000000000000000000000000000000000000000000010111011100 %!
0Q
b00000000000000000000000000000000000000000000000000000000000000000000000000100000110100 |
b0000001001011000 ,!
0e
b00000000000000000000000000000000000000000000000000000000000000000000000000001001011000 @
b00000000000000000000000000000000000000000000000000000000000000000000000000010111011100 &!
b00000000000000000000000000000000000000000000000000000000000000000000000000100000110100 '!
1P
b00000000000000000000000000000000000000000000000000000000000000000000000000001001011000 5
b00000000000000000000000000000000000000000000000000000000000000000000000000010111011100 K
1#
1T
0[
b00000000000000000000000000000000000000000000000000000000000000000000000000110110101100 $!
0o
b00000000000000000000000000000000000000000000000000000000000000000000000000010111011100 }
b0000001001011000 0
b00000000000000000000000000000000000000000000000000000000000000000000000000000001100100 +!
b00000000000000000000000000000000000000000000000000000000000000000000000000000001100100 =
1R
1x
b00000000000000000000000000000000000000000000000000000000000000000000000000110110101100 !!
#117800
07
09
0%
#124000
17
19
1%
