data/tb_top.133m.100m.vcd
$date
	Sun Aug 15 00:31:20 2021

$end
$version
	ModelSim SE Version 10.2c 2013.07
$end
$timescale
	1ps
$end
$scope module tb_top $end
$var wire 1 ! clk_dst $end
$var wire 1 " clk_src $end
$var wire 1 # pls_dst $end
$var wire 1 $ pls_src_mask $end
$var wire 1 % pls_src_masked $end
$var wire 1 & rstn_dst $end
$var wire 1 ' rstn_src $end
$var reg 1 ( pls_src $end
$scope module u_pls_sync $end
$var wire 1 " clk_src $end
$var wire 1 ' rstn_src $end
$var wire 1 ) pls_src $end
$var wire 1 % pls_src_masked $end
$var wire 1 ! clk_dst $end
$var wire 1 & rstn_dst $end
$var wire 1 # pls_dst $end
$var wire 1 * ptest_scan_mode $end
$var wire 1 + pls_done_src $end
$var wire 1 , rstn_mask $end
$var wire 1 - rstn_mask_async $end
$var wire 1 . rstn_mask_async_mux $end
$var wire 1 / toggle_src_sync2 $end
$var reg 1 0 pls_src_mask $end
$var reg 1 1 toggle_done_src $end
$var reg 1 2 toggle_dst $end
$var reg 1 3 toggle_src $end
$scope begin cfg_chk $end
$scope begin hs_type_chk $end
$upscope $end
$scope begin hs_en_chk $end
$upscope $end
$upscope $end
$scope begin genblk2 $end
$upscope $end
$scope begin no_fb $end
$upscope $end
$scope module u_toggle_src_sync $end
$var wire 1 ! clk $end
$var wire 1 & rstn $end
$var wire 1 4 lvl_in $end
$var wire 1 / lvl_out $end
$var reg 1 5 lvl_in_sync1 $end
$var reg 1 6 lvl_in_sync2 $end
$scope begin cfg_chk $end
$scope begin sync_stage_chk $end
$upscope $end
$scope begin rst_value_chk $end
$upscope $end
$upscope $end
$scope begin no_other_stage_sync $end
$upscope $end
$upscope $end
$upscope $end
$scope module u_test_top $end
$var wire 1 7 pd_rtc $end
$var wire 1 8 pd_xtl0 $end
$var wire 1 9 pd_xtl1 $end
$var wire 1 : pd_xtl3 $end
$var reg 1 ; clk $end
$var reg 1 < clk_100m $end
$var reg 1 = clk_10m $end
$var reg 1 > clk_128m $end
$var reg 1 ? clk_133m $end
$var reg 1 @ clk_1m $end
$var reg 1 A clk_24m $end
$var reg 1 B clk_250m $end
$var reg 1 C clk_300m $end
$var reg 1 D clk_312m $end
$var reg 1 E clk_32k $end
$var reg 1 F clk_32m $end
$var reg 1 G clk_60m $end
$var reg 1 H mclk $end
$var reg 1 I porstn $end
$var reg 1 J xtl0_stable $end
$var reg 1 K xtl1_stable $end
$var reg 128 L debug_mode [127:0] $end
$var reg 128 M debug_sub_mode [127:0] $end
$var reg 128 N debug_info1 [127:0] $end
$var reg 128 O debug_info2 [127:0] $end
$var reg 1024 P debug_proc [1023:0] $end
$var reg 512 Q debug_pattern_name [511:0] $end
$var reg 32 R rdata [31:0] $end
$var reg 32 S rdata1 [31:0] $end
$var reg 32 T rdata2 [31:0] $end
$var reg 32 U base_addr [31:0] $end
$var reg 32 V tmp_data [31:0] $end
$var reg 32 W expt_rdata [31:0] $end
$var reg 32 X wdata [31:0] $end
$var reg 32 Y wdata1 [31:0] $end
$var reg 32 Z wdata2 [31:0] $end
$var reg 32 [ addr [31:0] $end
$var reg 32 \ cfg_1x_div [31:0] $end
$var reg 32 ] cfg_2x_div [31:0] $end
$var reg 32 ^ cfg_4x_div [31:0] $end
$var reg 32 _ cfg_1x_int [31:0] $end
$var reg 32 ` cfg_1x_num [31:0] $end
$var reg 32 a cfg_1x_den [31:0] $end
$var reg 256 b master [255:0] $end
$var reg 32 c error_cnt [31:0] $end
$var reg 32 d random_num [31:0] $end
$var reg 32 e random_num1 [31:0] $end
$var reg 32 f i [31:0] $end
$var reg 32 g j [31:0] $end
$var reg 32 h k [31:0] $end
$var reg 32 i l [31:0] $end
$var reg 1 j flag $end
$var reg 1 k flag1 $end
$var reg 1 l flag2 $end
$var reg 1 m flag3 $end
$var reg 1 n flag4 $end
$var reg 32 o cyc_cnt [31:0] $end
$var reg 1 p test_start $end
$var reg 1 q test_end $end
$var reg 1 r entdaa_done $end
$var reg 1 s hj_req_done $end
$var reg 1 t rcv_nack $end
$var reg 1 u rcv_fail $end
$var reg 1 v rcv_t $end
$var reg 1 w rcv_nack_s0 $end
$var reg 1 x rcv_fail_s0 $end
$var reg 1 y master_slave $end
$var reg 32 z fs [31:0] $end
$var reg 32 { osr [31:0] $end
$var reg 32 | fmclk [31:0] $end
$var reg 32 } fpclk [31:0] $end
$var reg 32 ~ prescale [31:0] $end
$var reg 32 !! bsel [31:0] $end
$var integer 32 "! test_cnt [31:0] $end
$var integer 32 #! dev_id [31:0] $end
$var integer 32 $! data_cnt [31:0] $end
$upscope $end
$upscope $end
$enddefinitions $end
$dumpvars
0!
bxxxxxxxxxxxxxxxxxxxxxxxxxxxxxxxx $!
0"
bxxxxxxxxxxxxxxxxxxxxxxxxxxxxxxxx #!
x$
bxxxxxxxxxxxxxxxxxxxxxxxxxxxxxxxx "!
x(
bxxxxxxxxxxxxxxxxxxxxxxxxxxxxxxxx !!
x0
bxxxxxxxxxxxxxxxxxxxxxxxxxxxxxxxx ~
0@
bxxxxxxxxxxxxxxxxxxxxxxxxxxxxxxxx }
bxxxxxxxxxxxxxxxxxxxxxxxxxxxxxxxx |
bxxxxxxxxxxxxxxxxxxxxxxxxxxxxxxxx {
bxxxxxxxxxxxxxxxxxxxxxxxxxxxxxxxx z
xy
xx
xw
xv
xu
xt
xs
xr
xq
xp
bxxxxxxxxxxxxxxxxxxxxxxxxxxxxxxxx o
0n
0m
0l
0k
0j
bxxxxxxxxxxxxxxxxxxxxxxxxxxxxxxxx i
bxxxxxxxxxxxxxxxxxxxxxxxxxxxxxxxx h
bxxxxxxxxxxxxxxxxxxxxxxxxxxxxxxxx g
bxxxxxxxxxxxxxxxxxxxxxxxxxxxxxxxx f
bxxxxxxxxxxxxxxxxxxxxxxxxxxxxxxxx e
bxxxxxxxxxxxxxxxxxxxxxxxxxxxxxxxx d
bxxxxxxxxxxxxxxxxxxxxxxxxxxxxxxxx `
bxxxxxxxxxxxxxxxxxxxxxxxxxxxxxxxx a
0A
bxxxxxxxxxxxxxxxxxxxxxxxxxxxxxxxxxxxxxxxxxxxxxxxxxxxxxxxxxxxxxxxxxxxxxxxxxxxxxxxxxxxxxxxxxxxxxxxxxxxxxxxxxxxxxxxxxxxxxxxxxxxxxxxxxxxxxxxxxxxxxxxxxxxxxxxxxxxxxxxxxxxxxxxxxxxxxxxxxxxxxxxxxxxxxxxxxxxxxxxxxxxxxxxxxxxxxxxxxxxxxxxxxxxxxxxxxxxxxxxxxxxxxxxxxxxxxxxx b
b00000000000000000000000000000000 c
x1
bxxxxxxxxxxxxxxxxxxxxxxxxxxxxxxxx _
bxxxxxxxxxxxxxxxxxxxxxxxxxxxxxxxx ^
bxxxxxxxxxxxxxxxxxxxxxxxxxxxxxxxx ]
bxxxxxxxxxxxxxxxxxxxxxxxxxxxxxxxx \
bxxxxxxxxxxxxxxxxxxxxxxxxxxxxxxxx [
bxxxxxxxxxxxxxxxxxxxxxxxxxxxxxxxx Z
bxxxxxxxxxxxxxxxxxxxxxxxxxxxxxxxx Y
bxxxxxxxxxxxxxxxxxxxxxxxxxxxxxxxx X
bxxxxxxxxxxxxxxxxxxxxxxxxxxxxxxxx W
bxxxxxxxxxxxxxxxxxxxxxxxxxxxxxxxx V
bxxxxxxxxxxxxxxxxxxxxxxxxxxxxxxxx U
bxxxxxxxxxxxxxxxxxxxxxxxxxxxxxxxx T
bxxxxxxxxxxxxxxxxxxxxxxxxxxxxxxxx S
bxxxxxxxxxxxxxxxxxxxxxxxxxxxxxxxx R
b00000000000000000000000000000000000000000000000000000000000000000000000000000000000000000000000000000000000000000000000000000000000000000000000000000000000000000000000000000000000000000000000000000000000000000000000000000000000000000000000000000000000000000000000000000000000000000000000000000000000000000000000000000000000000000000000000000000000000000000000000000000000000000000000000000000000000000111000001100001011101000111010001100101011100100110111001011111011100000110111101110010011100110111010001101110 Q
bxxxxxxxxxxxxxxxxxxxxxxxxxxxxxxxxxxxxxxxxxxxxxxxxxxxxxxxxxxxxxxxxxxxxxxxxxxxxxxxxxxxxxxxxxxxxxxxxxxxxxxxxxxxxxxxxxxxxxxxxxxxxxxxxxxxxxxxxxxxxxxxxxxxxxxxxxxxxxxxxxxxxxxxxxxxxxxxxxxxxxxxxxxxxxxxxxxxxxxxxxxxxxxxxxxxxxxxxxxxxxxxxxxxxxxxxxxxxxxxxxxxxxxxxxxxxxxxxxxxxxxxxxxxxxxxxxxxxxxxxxxxxxxxxxxxxxxxxxxxxxxxxxxxxxxxxxxxxxxxxxxxxxxxxxxxxxxxxxxxxxxxxxxxxxxxxxxxxxxxxxxxxxxxxxxxxxxxxxxxxxxxxxxxxxxxxxxxxxxxxxxxxxxxxxxxxxxxxxxxxxxxxxxxxxxxxxxxxxxxxxxxxxxxxxxxxxxxxxxxxxxxxxxxxxxxxxxxxxxxxxxxxxxxxxxxxxxxxxxxxxxxxxxxxxxxxxxxxxxxxxxxxxxxxxxxxxxxxxxxxxxxxxxxxxxxxxxxxxxxxxxxxxxxxxxxxxxxxxxxxxxxxxxxxxxxxxxxxxxxxxxxxxxxxxxxxxxxxxxxxxxxxxxxxxxxxxxxxxxxxxxxxxxxxxxxxxxxxxxxxxxxxxxxxxxxxxxxxxxxxxxxxxxxxxxxxxxxxxxxxxxxxxxxxxxxxxxxxxxxxxxxxxxxxxxxxxxxxxxxxxxxxxxxxxxxxxxxxxxxxxxxxxxxxxxxxxxxxxxxxxxxxxxxxxxxxxxxxxxxxxxxxxxxxxxxxxxxxxxxxxxxxxxxxxxxxxxxxxxxxxxxxxxxxxxxxxxxxxxxxxxxxxxxxxxxxxxxxxxxxxxxxxxxxxxxxxxxxxxxxxxxxxxxxxxxxxxxxxxxxxxxxxxxxxxxxxxxxxxxxxxxxxxxxxxxxxxxxxxxxxxxxxxxxxxxxxxxxxxxxxxxxxxxxxxxxxxxxxxxxxxxxxxxxxxxxxxxxxxxxxxxx P
bxxxxxxxxxxxxxxxxxxxxxxxxxxxxxxxxxxxxxxxxxxxxxxxxxxxxxxxxxxxxxxxxxxxxxxxxxxxxxxxxxxxxxxxxxxxxxxxxxxxxxxxxxxxxxxxxxxxxxxxxxxxxxxxx O
bxxxxxxxxxxxxxxxxxxxxxxxxxxxxxxxxxxxxxxxxxxxxxxxxxxxxxxxxxxxxxxxxxxxxxxxxxxxxxxxxxxxxxxxxxxxxxxxxxxxxxxxxxxxxxxxxxxxxxxxxxxxxxxxx N
bxxxxxxxxxxxxxxxxxxxxxxxxxxxxxxxxxxxxxxxxxxxxxxxxxxxxxxxxxxxxxxxxxxxxxxxxxxxxxxxxxxxxxxxxxxxxxxxxxxxxxxxxxxxxxxxxxxxxxxxxxxxxxxxx M
bxxxxxxxxxxxxxxxxxxxxxxxxxxxxxxxxxxxxxxxxxxxxxxxxxxxxxxxxxxxxxxxxxxxxxxxxxxxxxxxxxxxxxxxxxxxxxxxxxxxxxxxxxxxxxxxxxxxxxxxxxxxxxxxx L
xK
xJ
0I
0H
0B
0G
0F
0C
x)
x2
0D
0E
x3
x%
0*
x4
x5
z+
x6
z7
x#
0&
z,
z8
z9
0?
0>
z-
0=
0<
z:
0;
0'
z.
x/
$end
#10
00
0$
0(
0#
04
0)
02
05
03
0%
06
0/
#3759
1"
1?
#5000
1!
1<
#7518
0"
0?
#8333
1G
#10000
0!
0<
#11277
1?
1"
#15000
1!
1<
#15036
0?
0"
#15625
1F
#16666
0G
#18795
1?
1"
#20000
0<
0!
#20833
1A
#22554
0?
0"
#24999
1G
#25000
1!
1<
#26313
1"
1?
#30000
0!
0<
#30072
0"
0?
#31250
0F
#33332
0G
#33831
1"
1?
#35000
1<
1!
#37590
0"
0?
#40000
0<
0!
#41349
1"
1?
#41665
1G
#41666
0A
#45000
1!
1<
#45108
0"
0?
#46875
1F
#48867
1"
1?
#49998
0G
#50000
0<
1=
0!
#52626
0?
0"
#55000
1<
1!
#56385
1?
1"
#58331
1G
#60000
0<
0!
#60144
0"
0?
#62499
1A
#62500
0F
#63903
1"
1?
#65000
1!
1<
#66664
0G
#67662
0"
0?
#70000
0<
0!
#71421
1"
1?
#74997
1G
#75000
1!
1<
#75180
0?
0"
#78125
1F
#78939
1?
1"
#80000
0!
0<
#82698
0?
0"
#83330
0G
#83332
0A
#85000
1!
1<
#86457
1?
1"
#90000
0!
0<
#90216
0?
0"
#91663
1G
#93750
0F
#93975
1?
1"
#95000
1!
1<
#97734
0?
0"
#99996
0G
#100000
0=
1I
0<
0!
1'
1&
#101493
1"
1?
#104165
1A
#105000
1<
1!
#105252
0?
0"
#108329
1G
#109011
1?
1"
#109021
1(
1)
1%
#109375
1F
#110000
0<
0!
#112770
0?
0"
#115000
1<
1!
#116529
1?
1"
#116539
14
13
#116662
0G
#120000
0!
0<
#120288
0?
0"
#124047
1?
1"
#124057
03
04
#124995
1G
#124998
0A
#125000
1!
1<
0F
#127806
0"
0?
#130000
0<
0!
#131565
1"
1?
#131575
13
14
#133328
0G
#135000
1<
1!
#135010
15
#135324
0"
0?
#139083
1"
1?
#139093
04
03
#140000
0<
0!
#140625
1F
#141661
1G
#142842
0?
0"
#145000
1!
1<
#145010
1#
16
05
1/
#145831
1A
#146601
1?
1"
#146611
14
13
#149994
0G
#150000
0!
0<
1=
#150360
0"
0?
#154119
1"
1?
#154129
04
03
0%
0)
0(
#155000
1<
1!
#155010
0/
12
06
#156250
0F
#157878
0?
0"
#158327
1G
#160000
0!
0<
#161637
1"
1?
#161647
1%
1)
1(
#165000
1!
1<
#165010
02
0#
#165396
0"
0?
#166660
0G
#166664
0A
#169155
1"
1?
#169165
14
13
#170000
0!
0<
#171875
1F
#172914
0"
0?
#174993
1G
#175000
1<
1!
#175010
15
#176673
1?
1"
#176683
04
0(
0)
03
0%
#180000
0<
0!
#180432
0?
0"
#183326
0G
#184191
1?
1"
#184201
1%
1)
1(
#185000
1!
1<
#185010
1#
05
16
1/
#187497
1A
#187500
0F
#187950
0?
0"
#190000
0<
0!
#191659
1G
#191709
1?
1"
#191719
13
14
#195000
1!
1<
#195010
15
12
0/
06
#195468
0"
0?
#199227
1"
1?
#199237
0)
03
0%
0(
04
#199992
0G
#200000
0=
0!
0<
#202986
0?
0"
#203125
1F
#205000
1!
1<
#205010
1/
16
02
05
#206745
1"
1?
#206755
1(
1%
1)
#208325
1G
#208330
0A
#210000
0!
0<
#210504
0"
0?
#214263
1"
1?
#214273
0%
0)
14
0(
13
#215000
1!
1<
#215010
15
12
06
0/
#216658
0G
#218022
0"
0?
#218750
0F
#220000
0<
0!
#221781
1?
1"
#221791
1%
1(
1)
#224991
1G
#225000
1<
1!
#225010
1/
16
02
#225540
0?
0"
#229163
1A
#229299
1?
1"
#229309
0(
0)
03
04
0%
#230000
0!
0<
#233058
0"
0?
#233324
0G
#234375
1F
#235000
1!
1<
#235010
12
0#
05
#236817
1"
1?
#236827
1%
1(
1)
#240000
0!
0<
#240576
0"
0?
#241657
1G
#244335
1"
1?
#244345
14
13
#245000
1!
1<
#245010
06
15
0/
1#
#248094
0"
0?
#249990
0G
#249996
0A
#250000
0F
1=
0!
0<
#251853
1?
1"
#251863
04
0(
03
0)
0%
#255000
1!
1<
#255010
1/
02
05
16
#255612
0"
0?
#258323
1G
#259371
1"
1?
#259381
1%
1)
1(
#260000
0!
0<
#263130
0?
0"
#265000
1!
1<
#265010
06
12
0/
#265625
1F
#266656
0G
#266889
1?
1"
#266899
0)
0%
0(
13
14
#270000
0!
0<
#270648
0?
0"
#270829
1A
#274407
1?
1"
#274989
1G
#275000
1!
1<
#275010
02
15
0#
#278166
0"
0?
#280000
0!
0<
#281250
0F
#281925
1"
1?
#283322
0G
#285000
1<
1!
#285010
1#
1/
16
#285684
0"
0?
#289443
1"
1?
#289453
1)
1(
1%
#290000
0<
0!
#291655
1G
#291662
0A
#293202
0"
0?
#295000
1!
1<
#295010
0#
12
#296875
1F
#296961
1"
1?
#296971
0%
0(
03
04
0)
#299988
0G
#300000
0=
0<
0!
#300720
0"
0?
#304479
1"
1?
#304489
1%
1)
1(
#305000
1!
1<
#305010
05
#308238
0?
0"
#308321
1G
#310000
0<
0!
#311997
1"
1?
#312007
14
13
#312495
1A
#312500
0F
#315000
1<
1!
#315010
1#
06
15
0/
#315756
0"
0?
#316654
0G
#319515
1"
1?
#319525
03
04
#320000
0!
0<
#323274
0"
0?
#324987
1G
#325000
1!
1<
#325010
05
02
1/
16
#327033
1?
1"
#327043
13
14
#328125
1F
#330000
0!
0<
#330792
0?
0"
#333320
0G
#333328
0A
#334551
1?
1"
#334561
0)
03
0(
04
0%
#335000
1!
1<
#335010
0/
06
12
#338310
0"
0?
#340000
0<
0!
#341653
1G
#342069
1"
1?
#343750
0F
#345000
1<
1!
#345010
02
0#
#345828
0?
0"
#349587
1?
1"
#349986
0G
#350000
0<
0!
1=
#353346
0?
0"
#354161
1A
#355000
1!
1<
#357105
1"
1?
#358319
1G
#359375
1F
#360000
0!
0<
#360864
0?
0"
#364623
1?
1"
#364633
1)
1%
1(
#365000
1!
1<
#366652
0G
#368382
0?
0"
#370000
0!
0<
#372141
1?
1"
#372151
13
14
0(
0%
0)
#374985
1G
#374994
0A
#375000
0F
1<
1!
#375010
15
#375900
0?
0"
#379659
1?
1"
#379669
1)
1%
1(
#380000
0!
0<
#383318
0G
#383418
0?
0"
#385000
1!
1<
#385010
16
1#
1/
#387177
1?
1"
#387187
03
04
#390000
0!
0<
#390625
1F
#390936
0?
0"
#391651
1G
#394695
1?
1"
#394705
13
14
#395000
1<
1!
#395010
12
0#
#395827
1A
#398454
0?
0"
#399984
0G
#400000
0=
0<
0!
#402213
1"
1?
#402223
03
04
#405000
1<
1!
#405010
05
#405972
0"
0?
#406250
0F
#408317
1G
#409731
1"
1?
#409741
14
13
#410000
0!
0<
#413490
0"
0?
#415000
1!
1<
#415010
0/
1#
15
06
#416650
0G
#416660
0A
#417249
1"
1?
#417259
04
0(
03
0)
0%
#420000
0<
0!
#421008
0"
0?
#421875
1F
#424767
1"
1?
#424983
1G
#425000
1<
1!
#425010
05
02
16
1/
#428526
0"
0?
#430000
0<
0!
#432285
1"
1?
#432295
1%
1)
1(
#433316
0G
#435000
1<
1!
#435010
06
0/
12
#436044
0?
0"
#437493
1A
#437500
0F
#439803
1?
1"
#439813
14
13
#440000
0!
0<
#441649
1G
#443562
0?
0"
#445000
1!
1<
#445010
02
15
0#
#447321
1?
1"
#447331
04
03
#449982
0G
#450000
0!
0<
1=
#451080
0"
0?
#453125
1F
#454839
1"
1?
#454849
0)
13
0(
14
0%
#455000
1<
1!
#455010
1#
1/
16
#458315
1G
#458326
0A
#458598
0?
0"
#460000
0!
0<
#462357
1?
1"
#465000
1!
1<
#465010
12
0#
#466116
0?
0"
#466648
0G
#468750
0F
#469875
1?
1"
#470000
0<
0!
#473634
0?
0"
#474981
1G
#475000
1!
1<
#477393
1"
1?
#479159
1A
#480000
0!
0<
#481152
0?
0"
#483314
0G
#484375
1F
#484911
1?
1"
#485000
1<
1!
#488670
0?
0"
#490000
0<
0!
#491647
1G
#492429
1"
1?
#492439
1)
1(
1%
#495000
1!
1<
#496188
0"
0?
#499947
1"
1?
#499957
0%
0(
04
0)
03
#499980
0G
#499992
0A
#500000
0=
0!
0<
0F
#503706
0?
0"
#505000
1<
1!
#505010
05
#507465
1?
1"
#508313
1G
#510000
0!
0<
#511224
0"
0?
#514983
1"
1?
#514993
1%
1)
1(
#515000
1<
1!
#515010
06
0/
1#
#515625
1F
#516646
0G
#518742
0?
0"
#520000
0<
0!
#520825
1A
#522501
1?
1"
#522511
13
14
#524979
1G
#525000
1!
1<
#525010
15
02
0#
#526260
0?
0"
#530000
0<
0!
#530019
1?
1"
#530029
04
03
0(
0)
0%
#531250
0F
#533312
0G
#533778
0"
0?
#535000
1<
1!
#535010
1/
05
1#
16
#537537
1?
1"
#540000
0!
0<
#541296
0?
0"
#541645
1G
#541658
0A
#545000
1!
1<
#545010
06
12
0/
#545055
1?
1"
#546875
1F
#548814
0?
0"
#549978
0G
#550000
0!
0<
1=
#552573
1?
1"
#555000
1<
1!
#555010
02
0#
#556332
0?
0"
#558311
1G
#560000
0<
0!
#560091
1"
1?
#562491
1A
#562500
0F
#563850
0"
0?
#565000
1!
1<
#566644
0G
#567609
1"
1?
#567619
1(
1%
1)
#570000
0!
0<
#571368
0"
0?
#574977
1G
#575000
1!
1<
#575127
1?
1"
#575137
13
14
#578125
1F
#578886
0?
0"
#580000
0<
0!
#582645
1?
1"
#582655
03
04
#583310
0G
#583324
0A
#585000
1!
1<
#586404
0?
0"
#590000
0!
0<
#590163
1?
1"
#590173
13
14
#591643
1G
#593750
0F
#593922
0?
0"
#595000
1!
1<
#595010
15
#597681
1?
1"
#597691
04
03
#599976
0G
#600000
0=
0<
0!
#601440
0?
0"
#604157
1A
#605000
1<
1!
#605010
1/
05
16
1#
#605199
1"
1?
#605209
14
0)
0(
13
0%
#608309
1G
#608958
0"
0?
#609375
1F
#610000
0!
0<
#612717
1"
1?
#615000
1!
1<
#615010
06
12
0/
15
#616476
0"
0?
#616642
0G
#620000
0!
0<
#620235
1?
1"
#620245
1%
1(
1)
#623994
0?
0"
#624975
1G
#624990
0A
#625000
0F
1<
1!
#625010
1/
02
16
#627753
1?
1"
#627763
03
04
#630000
0<
0!
#631512
0?
0"
#633308
0G
#635000
1<
1!
#635010
0#
05
12
#635271
1"
1?
#635281
13
14
#639030
0"
0?
#640000
0<
0!
#640625
1F
#641641
1G
#642789
1"
1?
#642799
03
0(
04
0)
0%
#645000
1!
1<
#645010
06
0/
1#
#645823
1A
#646548
0?
0"
#649974
0G
#650000
0!
0<
1=
#650307
1"
1?
#654066
0"
0?
#655000
1<
1!
#655010
0#
02
#656250
0F
#657825
1"
1?
#657835
1)
1(
1%
#658307
1G
#660000
0<
0!
#661584
0?
0"
#665000
1<
1!
#665343
1?
1"
#665353
13
14
#666640
0G
#666656
0A
#669102
0?
0"
#670000
0<
0!
#671875
1F
#672861
1?
1"
#672871
03
04
0(
0)
0%
#674973
1G
#675000
1<
1!
#676620
0?
0"
#680000
0<
0!
#680379
1?
1"
#680389
1%
1)
1(
#683306
0G
#684138
0?
0"
#685000
1<
1!
#687489
1A
#687500
0F
#687897
1?
1"
#687907
13
14
#690000
0<
0!
#691639
1G
#691656
0?
0"
#695000
1<
1!
#695010
15
#695415
1?
1"
#695425
03
04
0(
0)
0%
#699174
0"
0?
#699972
0G
#700000
0<
0=
0!
#702933
1?
1"
#702943
1%
1)
1(
#703125
1F
#705000
1!
1<
#705010
05
1/
1#
16
#706692
0"
0?
#708305
1G
#708322
0A
#710000
0<
0!
#710451
1?
1"
#710461
13
14
#714210
0?
0"
#715000
1<
1!
#715010
06
12
0/
15
#716638
0G
#717969
1?
1"
#717979
03
04
#718750
0F
#720000
0<
0!
#721728
0?
0"
#724971
1G
#725000
1<
1!
#725010
05
1/
02
16
#725487
1"
1?
#725497
13
0(
0)
14
0%
#729155
1A
#729246
0"
0?
#730000
0<
0!
#733005
1"
1?
#733015
1%
1)
1(
#733304
0G
#734375
1F
#735000
1!
1<
#735010
12
06
0/
15
#736764
0"
0?
#740000
0!
0<
#740523
1"
1?
#740533
03
04
#741637
1G
#744282
0"
0?
#745000
1!
1<
#745010
1/
05
16
02
#748041
1"
1?
#748051
0(
0)
14
0%
13
#749970
0G
#749988
0A
#750000
0F
0!
1=
0<
#751800
0?
0"
#755000
1!
1<
#755010
06
12
15
0/
#755559
1?
1"
#758303
1G
#759318
0?
0"
#760000
0!
0<
#763077
1?
1"
#765000
1!
1<
#765010
1/
02
16
#765625
1F
#766636
0G
#766836
0"
0?
#770000
0!
0<
#770595
1"
1?
#770821
1A
#774354
0"
0?
#774969
1G
#775000
1<
1!
#775010
0#
12
#778113
1?
1"
#778123
1%
1)
1(
#780000
0<
0!
#781250
0F
#781872
0?
0"
#783302
0G
#785000
1!
1<
#785631
1"
1?
#785641
03
04
#789390
0"
0?
#790000
0<
0!
#791635
1G
#791654
0A
#793149
1"
1?
#793159
13
14
0%
0)
0(
#795000
1<
1!
#796875
1F
#796908
0"
0?
#799968
0G
#800000
0=
0<
0!
#800667
1"
1?
#804426
0"
0?
#805000
1<
1!
#808185
1"
1?
#808195
1)
1(
1%
#808301
1G
#810000
0!
0<
#811944
0"
0?
#812487
1A
#812500
0F
#815000
1!
1<
#815703
1"
1?
#815713
04
03
#816634
0G
#819462
0"
0?
#820000
0!
0<
#823221
1"
1?
#823231
13
14
#824967
1G
#825000
1<
1!
#826980
0"
0?
#828125
1F
#830000
0<
0!
#830739
1?
1"
#830749
04
03
#833300
0G
#833320
0A
#834498
0?
0"
#835000
1<
1!
#835010
05
#838257
1?
1"
#838267
13
14
#840000
0!
0<
#841633
1G
#842016
0?
0"
#843750
0F
#845000
1!
1<
#845010
06
0/
1#
15
#845775
1"
1?
#845785
04
0%
0(
03
0)
#849534
0?
0"
#849966
0G
#850000
0!
1=
0<
#853293
1?
1"
#853303
1%
1)
1(
#854153
1A
#855000
1!
1<
#855010
05
02
1/
16
#857052
0?
0"
#858299
1G
#859375
1F
#860000
0<
0!
#860811
1"
1?
#860821
13
14
#864570
0"
0?
#865000
1!
1<
#865010
0/
06
12
15
#866632
0G
#868329
1"
1?
#868339
03
04
#870000
0!
0<
#872088
0?
0"
#874965
1G
#874986
0A
#875000
0F
1!
1<
#875010
05
02
16
1/
#875847
1"
1?
#875857
13
0(
14
0)
0%
#879606
0"
0?
#880000
0<
0!
#883298
0G
#883365
1"
1?
#885000
1!
1<
#885010
06
0/
12
15
#887124
0"
0?
#890000
0!
0<
#890625
1F
#890883
1"
1?
#891631
1G
#894642
0"
0?
#895000
1<
1!
#895010
02
1/
16
#895819
1A
#898401
1"
1?
#899964
0G
#900000
0=
0<
0!
#902160
0"
0?
#905000
1<
1!
#905010
0#
12
#905919
1"
1?
#906250
0F
#908297
1G
#909678
0"
0?
#910000
0<
0!
#913437
1"
1?
#915000
1<
1!
#916630
0G
#916652
0A
#917196
0?
0"
#920000
0<
0!
#920955
1?
1"
#921875
1F
#924714
0?
0"
#924963
1G
#925000
1!
1<
#928473
1?
1"
#928483
1%
1)
1(
#930000
0!
0<
#932232
0?
0"
#933296
0G
#935000
1!
1<
#935991
1"
1?
#936001
03
04
#937485
1A
#937500
0F
#939750
0"
0?
#940000
0!
0<
#941629
1G
#943509
1"
1?
#943519
13
14
#945000
1<
1!
#947268
0"
0?
#949962
0G
#950000
0<
0!
1=
#951027
1?
1"
#951037
04
03
#953125
1F
#954786
0?
0"
#955000
1!
1<
#955010
05
#958295
1G
#958318
0A
#958545
1?
1"
#958555
13
14
#960000
0!
0<
#962304
0?
0"
#965000
1!
1<
#965010
0/
1#
15
06
#966063
1?
1"
#966073
0)
03
0(
04
0%
#966628
0G
#968750
0F
#969822
0"
0?
#970000
0!
0<
#973581
1"
1?
#973591
1)
1%
1(
#974961
1G
#975000
1<
1!
#975010
16
02
05
1/
#977340
0?
0"
#979151
1A
#980000
0<
0!
#981099
1"
1?
#981109
14
13
#983294
0G
#984375
1F
#984858
0"
0?
#985000
1<
1!
#985010
0/
06
15
12
#988617
1"
1?
#988627
04
0%
0(
03
0)
#990000
0!
0<
#991627
1G
#992376
0?
0"
#995000
1<
1!
#995010
1/
02
05
16
#996135
1"
1?
#999894
0"
0?
#999960
0G
#999984
0A
#1000000
0F
0<
0!
0=
#1003653
1?
1"
#1003663
1)
1%
1(
#1005000
1!
1<
#1005010
06
0/
12
#1007412
0?
0"
#1008293
1G
#1010000
0<
0!
#1011171
1"
1?
#1011181
13
14
#1014930
0"
0?
#1015000
1!
1<
#1015010
15
02
0#
#1015625
1F
#1016626
0G
#1018689
1?
1"
#1018699
04
0(
0%
03
0)
#1020000
0!
0<
#1020817
1A
#1022448
0"
0?
#1024959
1G
#1025000
1<
1!
#1025010
1/
1#
05
16
#1026207
1?
1"
#1026217
1(
1)
1%
#1029966
0?
0"
#1030000
0<
0!
#1031250
0F
#1033292
0G
#1033725
1"
1?
#1033735
14
13
#1035000
1<
1!
#1035010
06
15
0/
12
#1037484
0?
0"
#1040000
0<
0!
#1041243
1?
1"
#1041253
04
03
#1041625
1G
#1041650
0A
#1045000
1<
1!
#1045002
0"
0?
#1045010
1/
02
05
16
#1046875
1F
#1048761
1"
1?
#1048771
14
13
#1049958
0G
#1050000
0!
0<
1=
#1052520
0"
0?
#1055000
1<
1!
#1055010
15
06
12
0/
#1056279
1"
1?
#1056289
03
0%
04
0)
0(
#1058291
1G
#1060000
0<
0!
#1060038
0?
0"
#1062483
1A
#1062500
0F
#1063797
1?
1"
#1065000
1!
1<
#1065010
02
1/
16
05
#1066624
0G
#1067556
0?
0"
#1070000
0<
0!
#1071315
1?
1"
#1074957
1G
#1075000
1!
1<
#1075010
06
0/
12
#1075074
0"
0?
#1078125
1F
#1078833
1"
1?
#1078843
1(
1%
1)
#1080000
0!
0<
#1082592
0"
0?
#1083290
0G
#1083316
0A
#1085000
1!
1<
#1085010
0#
02
#1086351
1"
1?
#1086361
0%
13
0)
14
0(
#1090000
0!
0<
#1090110
0?
0"
#1091623
1G
#1093750
0F
#1093869
1?
1"
#1095000
1!
1<
#1095010
15
#1097628
0?
0"
#1099956
0G
#1100000
0=
0<
0!
#1101387
1"
1?
#1104149
1A
#1105000
1<
1!
#1105010
1/
1#
16
#1105146
0?
0"
#1108289
1G
#1108905
1?
1"
#1108915
1(
1%
1)
#1109375
1F
#1110000
0<
0!
#1112664
0?
0"
#1115000
1<
1!
#1115010
0#
12
#1116423
1?
1"
#1116433
04
03
#1116622
0G
#1120000
0<
0!
#1120182
0?
0"
#1123941
1?
1"
#1123951
13
0%
14
0(
0)
